WB
…
476

5

581

6

581

7

777

## # A tibble: 21 x 3
## # Groups:   phase_19, front_new [21]
##    phase_19 front_new    vs
##       <int> <chr>     <dbl>
##  1        1 AITC      41.3 
##  2        1 BJP       51.6 
##  3        1 LF+INC     5.45
##  4        2 AITC      34.4 
##  5        2 BJP       50.3 
##  6        2 LF+INC    12.1 
##  7        3 AITC      37.3 
##  8        3 BJP       31.9 
##  9        3 LF+INC    27.6 
## 10        4 AITC      42.5 
## # ... with 11 more rows
…
